tb/tb_cache.vcd
$date
	Wed Feb 25 19:37:22 2026
$end
$version
	Icarus Verilog
$end
$timescale
	1ps
$end
$scope module tb_cache $end
$var wire 1 ! mem_req_ready $end
$var wire 1 " wr_way $end
$var wire 1 # wr_valid_en $end
$var wire 1 $ wr_valid $end
$var wire 1 % wr_tag_en $end
$var wire 26 & wr_tag [25:0] $end
$var wire 4 ' wr_set_idx [3:0] $end
$var wire 1 ( wr_plru_en $end
$var wire 1 ) wr_plru $end
$var wire 1 * wr_en $end
$var wire 1 + wr_dirty_en $end
$var wire 1 , wr_dirty $end
$var wire 1 - wr_data_en $end
$var wire 32 . wr_data [31:0] $end
$var wire 1 / rd_valid_way1 $end
$var wire 1 0 rd_valid_way0 $end
$var wire 26 1 rd_tag_way1 [25:0] $end
$var wire 26 2 rd_tag_way0 [25:0] $end
$var wire 4 3 rd_set_idx [3:0] $end
$var wire 1 4 rd_plru $end
$var wire 1 5 rd_dirty_way1 $end
$var wire 1 6 rd_dirty_way0 $end
$var wire 32 7 rd_data_way1 [31:0] $end
$var wire 32 8 rd_data_way0 [31:0] $end
$var wire 1 9 mem_resp_valid $end
$var wire 32 : mem_resp_rdata [31:0] $end
$var wire 32 ; mem_req_wdata [31:0] $end
$var wire 1 < mem_req_valid $end
$var wire 1 = mem_req_rw $end
$var wire 32 > mem_req_addr [31:0] $end
$var wire 1 ? cpu_resp_valid $end
$var wire 32 @ cpu_resp_rdata [31:0] $end
$var wire 1 A cpu_req_ready $end
$var reg 32 B A [31:0] $end
$var reg 32 C B [31:0] $end
$var reg 32 D C [31:0] $end
$var reg 32 E D [31:0] $end
$var reg 1 F clk $end
$var reg 32 G cpu_req_addr [31:0] $end
$var reg 1 H cpu_req_valid $end
$var reg 32 I cpu_req_wdata [31:0] $end
$var reg 4 J cpu_req_wstrb [3:0] $end
$var reg 32 K r0 [31:0] $end
$var reg 32 L r1 [31:0] $end
$var reg 32 M rA [31:0] $end
$var reg 32 N rD [31:0] $end
$var reg 1 O rst_n $end
$scope function addr_same_index_diff_tag $end
$upscope $end
$scope module u_arrays $end
$var wire 1 F clk $end
$var wire 1 O rst_n $end
$var wire 1 " wr_way $end
$var wire 1 # wr_valid_en $end
$var wire 1 $ wr_valid $end
$var wire 1 % wr_tag_en $end
$var wire 26 P wr_tag [25:0] $end
$var wire 4 Q wr_set_idx [3:0] $end
$var wire 1 ( wr_plru_en $end
$var wire 1 ) wr_plru $end
$var wire 1 * wr_en $end
$var wire 1 + wr_dirty_en $end
$var wire 1 , wr_dirty $end
$var wire 1 - wr_data_en $end
$var wire 32 R wr_data [31:0] $end
$var wire 4 S rd_set_idx [3:0] $end
$var reg 32 T rd_data_way0 [31:0] $end
$var reg 32 U rd_data_way1 [31:0] $end
$var reg 1 6 rd_dirty_way0 $end
$var reg 1 5 rd_dirty_way1 $end
$var reg 1 4 rd_plru $end
$var reg 26 V rd_tag_way0 [25:0] $end
$var reg 26 W rd_tag_way1 [25:0] $end
$var reg 1 0 rd_valid_way0 $end
$var reg 1 / rd_valid_way1 $end
$var integer 32 X i [31:0] $end
$upscope $end
$scope module u_ctrl $end
$var wire 1 Y accept_req $end
$var wire 1 F clk $end
$var wire 32 Z cpu_req_addr [31:0] $end
$var wire 1 H cpu_req_valid $end
$var wire 32 [ cpu_req_wdata [31:0] $end
$var wire 4 \ cpu_req_wstrb [3:0] $end
$var wire 1 ! mem_req_ready $end
$var wire 32 ] rd_data_way0 [31:0] $end
$var wire 32 ^ rd_data_way1 [31:0] $end
$var wire 1 6 rd_dirty_way0 $end
$var wire 1 5 rd_dirty_way1 $end
$var wire 1 4 rd_plru $end
$var wire 26 _ rd_tag_way0 [25:0] $end
$var wire 26 ` rd_tag_way1 [25:0] $end
$var wire 1 0 rd_valid_way0 $end
$var wire 1 / rd_valid_way1 $end
$var wire 1 O rst_n $end
$var wire 1 9 mem_resp_valid $end
$var wire 32 a mem_resp_rdata [31:0] $end
$var reg 1 A cpu_req_ready $end
$var reg 32 b cpu_resp_rdata [31:0] $end
$var reg 1 ? cpu_resp_valid $end
$var reg 1 c hit0 $end
$var reg 1 d hit1 $end
$var reg 1 e hit_any $end
$var reg 32 f hit_data [31:0] $end
$var reg 1 g hit_way $end
$var reg 32 h mem_req_addr [31:0] $end
$var reg 1 = mem_req_rw $end
$var reg 1 < mem_req_valid $end
$var reg 32 i mem_req_wdata [31:0] $end
$var reg 32 j merged_wdata [31:0] $end
$var reg 4 k next_state [3:0] $end
$var reg 4 l rd_set_idx [3:0] $end
$var reg 32 m refill_addr [31:0] $end
$var reg 32 n req_addr_q [31:0] $end
$var reg 4 o req_index_q [3:0] $end
$var reg 1 p req_is_write_q $end
$var reg 26 q req_tag_q [25:0] $end
$var reg 32 r req_wdata_q [31:0] $end
$var reg 4 s req_wstrb_q [3:0] $end
$var reg 4 t state [3:0] $end
$var reg 32 u victim_data_q [31:0] $end
$var reg 1 v victim_dirty_q $end
$var reg 26 w victim_tag_q [25:0] $end
$var reg 1 x victim_way_q $end
$var reg 32 y wb_addr [31:0] $end
$var reg 32 z wmask [31:0] $end
$var reg 32 { wr_data [31:0] $end
$var reg 1 - wr_data_en $end
$var reg 1 , wr_dirty $end
$var reg 1 + wr_dirty_en $end
$var reg 1 * wr_en $end
$var reg 1 ) wr_plru $end
$var reg 1 ( wr_plru_en $end
$var reg 4 | wr_set_idx [3:0] $end
$var reg 26 } wr_tag [25:0] $end
$var reg 1 % wr_tag_en $end
$var reg 1 $ wr_valid $end
$var reg 1 # wr_valid_en $end
$var reg 1 " wr_way $end
$scope begin $unm_blk_18 $end
$var reg 32 ~ victim_data_c [31:0] $end
$var reg 1 !" victim_dirty_c $end
$var reg 26 "" victim_tag_c [25:0] $end
$var reg 1 #" victim_way_c $end
$upscope $end
$upscope $end
$scope module u_mem $end
$var wire 1 F clk $end
$var wire 32 $" mem_req_addr [31:0] $end
$var wire 1 ! mem_req_ready $end
$var wire 1 = mem_req_rw $end
$var wire 1 < mem_req_valid $end
$var wire 32 %" mem_req_wdata [31:0] $end
$var wire 1 O rst_n $end
$var wire 10 &" waddr [9:0] $end
$var parameter 32 '" WORDS $end
$var reg 32 (" mem_resp_rdata [31:0] $end
$var reg 1 9 mem_resp_valid $end
$var integer 32 )" i [31:0] $end
$upscope $end
$scope task cpu_read $end
$upscope $end
$scope task cpu_write $end
$upscope $end
$upscope $end
$enddefinitions $end
$comment Show the parameter values. $end
$dumpall
b10000000000 '"
$end
#0
$dumpvars
b10000000000 )"
b0 ("
b0 &"
b0 %"
b0 $"
x#"
bx ""
x!"
bx ~
b0 }
b0 |
b0 {
b0 z
b0 y
0x
b0 w
0v
b0 u
b0 t
b0 s
b0 r
b0 q
0p
b0 o
b0 n
b0 m
b0 l
b0 k
b0 j
b0 i
b0 h
0g
b0 f
0e
0d
0c
b0 b
b0 a
b0 `
b0 _
b0 ^
b0 ]
b0 \
b0 [
b0 Z
0Y
b10000 X
b0 W
b0 V
b0 U
b0 T
b0 S
b0 R
b0 Q
b0 P
0O
bx N
bx M
bx L
bx K
b0 J
b0 I
0H
b0 G
0F
bx E
bx D
bx C
bx B
1A
b0 @
0?
b0 >
0=
0<
b0 ;
b0 :
09
b0 8
b0 7
06
05
04
b0 3
b0 2
b0 1
00
0/
b0 .
0-
0,
0+
0*
0)
0(
b0 '
b0 &
0%
0$
0#
0"
1!
$end
#5000
b10000 X
1F
#10000
0F
#15000
b10000 X
1F
#20000
0F
#25000
b10000 X
1F
#30000
0F
#35000
b10000 X
1F
#40000
0F
#45000
1O
1F
#50000
0F
#55000
1F
#60000
0F
#65000
1Y
b1 k
1A
1H
b1100 G
b1100 Z
b1100 B
1F
#70000
0F
#75000
b1100 m
b1100 y
b11 3
b11 S
b11 l
b1 t
b11 o
b1100 n
0Y
b11 k
0A
0H
1F
#80000
0F
#85000
b101 k
b0 ~
b0 ""
0!"
0#"
b11 t
1F
#90000
0F
#95000
b11 &"
b110 k
b1100 >
b1100 h
b1100 $"
1<
b101 t
1F
#100000
0F
#105000
b0 &"
b111 k
b0 >
b0 h
b0 $"
0<
19
b10000000000000000000000000011 :
b10000000000000000000000000011 a
b10000000000000000000000000011 ("
b110 t
1F
#110000
0F
#115000
b0 k
b10000000000000000000000000011 @
b10000000000000000000000000011 b
1?
1)
1(
1+
1$
1#
b10000000000000000000000000011 .
b10000000000000000000000000011 R
b10000000000000000000000000011 {
1-
1%
b11 '
b11 Q
b11 |
1*
b111 t
09
1F
#120000
0F
#125000
1A
0)
0(
0+
0$
0#
b0 .
b0 R
b0 {
0-
0%
b0 '
b0 Q
b0 |
0*
b0 @
b0 b
0?
b0 t
1F
#130000
0F
#135000
b10000000000000000000000000011 j
b10000000000000000000000000011 f
1e
1c
14
10
b10000000000000000000000000011 8
b10000000000000000000000000011 T
b10000000000000000000000000011 ]
1Y
b1 k
1A
1H
b10000000000000000000000000011 K
1F
#140000
0F
#145000
b1 t
0Y
b10 k
0A
0H
1F
#150000
0F
#155000
b0 k
1)
1(
b11 '
b11 Q
b11 |
1*
b10000000000000000000000000011 @
b10000000000000000000000000011 b
1?
b10 t
1F
#160000
0F
#165000
1A
0)
0(
b0 '
b0 Q
b0 |
0*
b0 @
b0 b
0?
b0 t
1F
#170000
0F
#175000
1Y
b1 k
1A
1H
b1111 J
b1111 \
b11011110101011011011111011101111 I
b11011110101011011011111011101111 [
b10000000000000000000000000011 L
1F
#180000
0F
#185000
b11011110101011011011111011101111 j
b11111111111111111111111111111111 z
1p
b1111 s
b11011110101011011011111011101111 r
b1 t
0Y
b10 k
0A
0H
1F
#190000
0F
#195000
b0 k
1,
1+
b11011110101011011011111011101111 .
b11011110101011011011111011101111 R
b11011110101011011011111011101111 {
1-
1)
1(
b11 '
b11 Q
b11 |
1*
b11011110101011011011111011101111 @
b11011110101011011011111011101111 b
1?
b10 t
1F
#200000
0F
#205000
1A
0)
0(
0,
0+
b0 .
b0 R
b0 {
0-
b0 '
b0 Q
b0 |
0*
b0 @
b0 b
0?
b0 t
1F
#210000
0F
#215000
b11011110101011011011111011101111 f
16
b11011110101011011011111011101111 8
b11011110101011011011111011101111 T
b11011110101011011011111011101111 ]
1Y
b1 k
1A
1H
b0 J
b0 \
b0 I
b0 [
1F
#220000
0F
#225000
b0 z
0p
b0 s
b0 r
b1 t
0Y
b10 k
0A
0H
1F
#230000
0F
#235000
b0 k
1)
1(
b11 '
b11 Q
b11 |
1*
b11011110101011011011111011101111 @
b11011110101011011011111011101111 b
1?
b10 t
1F
#240000
0F
#245000
1A
0)
0(
b0 '
b0 Q
b0 |
0*
b0 @
b0 b
0?
b0 t
1F
#250000
0F
#255000
1Y
b1 k
1A
1H
b1111 J
b1111 \
b11001010111111101011101010111110 I
b11001010111111101011101010111110 [
b1001100 G
b1001100 Z
b1001100 C
b11011110101011011011111011101111 K
1F
#260000
0F
#265000
b1001100 m
b11001010111111101011101010111110 j
b11111111111111111111111111111111 z
0e
0c
b1 q
1p
b1111 s
b11001010111111101011101010111110 r
b1001100 n
b1 t
0Y
b11 k
0A
0H
1F
#270000
0F
#275000
b101 k
1#"
b11 t
1F
#280000
0F
#285000
b10011 &"
b110 k
b1001100 >
b1001100 h
b1001100 $"
1<
1x
b101 t
1F
#290000
0F
#295000
b0 &"
b111 k
b0 >
b0 h
b0 $"
0<
b110 t
19
b10000000000000000000000010011 :
b10000000000000000000000010011 a
b10000000000000000000000010011 ("
1F
#300000
0F
#305000
b0 k
b11001010111111101011101010111110 @
b11001010111111101011101010111110 b
1?
1(
1,
1+
1$
1#
b11001010111111101011101010111110 .
b11001010111111101011101010111110 R
b11001010111111101011101010111110 {
1-
b1 &
b1 P
b1 }
1%
b11 '
b11 Q
b11 |
1"
1*
09
b111 t
1F
#310000
0F
#315000
1A
0(
0,
0+
0$
0#
b0 .
b0 R
b0 {
0-
b0 &
b0 P
b0 }
0%
b0 '
b0 Q
b0 |
0"
0*
b0 @
b0 b
0?
b0 t
1F
#320000
0F
#325000
b11001010111111101011101010111110 f
1g
1e
1d
04
15
1/
b11001010111111101011101010111110 7
b11001010111111101011101010111110 U
b11001010111111101011101010111110 ^
b1 1
b1 W
b1 `
1Y
b1 k
1A
1H
b0 J
b0 \
b0 I
b0 [
1F
#330000
0F
#335000
b0 z
b1 t
0p
b0 s
b0 r
0Y
1g
b10 k
0A
0H
1F
#340000
0F
#345000
b0 k
1(
1"
b11 '
b11 Q
b11 |
1*
b11001010111111101011101010111110 @
b11001010111111101011101010111110 b
1?
1g
b10 t
1F
#350000
0F
#355000
1A
1g
0(
b0 '
b0 Q
b0 |
0"
0*
b0 @
b0 b
0?
b0 t
1F
#360000
0F
#365000
1Y
b1 k
1g
1A
1H
b1111 J
b1111 \
b10001000100010010001000100010 I
b10001000100010010001000100010 [
b1100 G
b1100 Z
b10001100 D
b11001010111111101011101010111110 K
1F
#370000
0F
#375000
b1100 m
b10001000100010010001000100010 j
b11111111111111111111111111111111 z
b11011110101011011011111011101111 f
0d
1c
b1 t
b0 q
1p
b1111 s
b10001000100010010001000100010 r
b1100 n
0Y
0g
b10 k
0A
0H
1F
#380000
0F
#385000
b0 k
1,
1+
b10001000100010010001000100010 .
b10001000100010010001000100010 R
b10001000100010010001000100010 {
1-
1)
1(
b11 '
b11 Q
b11 |
1*
b10001000100010010001000100010 @
b10001000100010010001000100010 b
1?
b10 t
1F
#390000
0F
#395000
1A
0)
0(
0,
0+
b0 .
b0 R
b0 {
0-
b0 '
b0 Q
b0 |
0*
b0 @
b0 b
0?
b0 t
1F
#400000
0F
#405000
b10001000100010010001000100010 f
14
b10001000100010010001000100010 8
b10001000100010010001000100010 T
b10001000100010010001000100010 ]
1Y
b1 k
1A
1H
b0 J
b0 \
b0 I
b0 [
1F
#410000
0F
#415000
b0 z
b1 t
0p
b0 s
b0 r
0Y
b10 k
0A
0H
1F
#420000
0F
#425000
b0 k
1)
1(
b11 '
b11 Q
b11 |
1*
b10001000100010010001000100010 @
b10001000100010010001000100010 b
1?
b10 t
1F
#430000
0F
#435000
1A
0)
0(
b0 '
b0 Q
b0 |
0*
b0 @
b0 b
0?
b0 t
1F
#440000
0F
#445000
1Y
b1 k
1A
1H
b1111 J
b1111 \
b110011001100110100010001000100 I
b110011001100110100010001000100 [
b1001100 G
b1001100 Z
b10001000100010010001000100010 M
1F
#450000
0F
#455000
b1001100 m
b110011001100110100010001000100 j
b11111111111111111111111111111111 z
b11001010111111101011101010111110 f
1g
1d
0c
b1 t
b1 q
1p
b1111 s
b110011001100110100010001000100 r
b1001100 n
0Y
b10 k
0A
0H
1F
#460000
0F
#465000
b0 k
1,
1+
b110011001100110100010001000100 .
b110011001100110100010001000100 R
b110011001100110100010001000100 {
1-
1(
1"
b11 '
b11 Q
b11 |
1*
b110011001100110100010001000100 @
b110011001100110100010001000100 b
1?
1g
b10 t
1F
#470000
0F
#475000
1A
1g
0(
0,
0+
b0 .
b0 R
b0 {
0-
b0 '
b0 Q
b0 |
0"
0*
b0 @
b0 b
0?
b0 t
1F
#480000
0F
#485000
b110011001100110100010001000100 f
04
b110011001100110100010001000100 7
b110011001100110100010001000100 U
b110011001100110100010001000100 ^
1Y
b1 k
1g
1A
1H
b1010101010101010110011001100110 I
b1010101010101010110011001100110 [
b10001100 G
b10001100 Z
1F
#490000
0F
#495000
b10001100 m
b1010101010101010110011001100110 j
b10001000100010010001000100010 f
0e
0d
b1 t
b10 q
b1010101010101010110011001100110 r
b10001100 n
0Y
0g
b11 k
0A
0H
1F
#500000
0F
#505000
b100 k
1!"
b10001000100010010001000100010 ~
0#"
b11 t
1F
#510000
0F
#515000
b11 &"
b101 k
b10001000100010010001000100010 ;
b10001000100010010001000100010 i
b10001000100010010001000100010 %"
b1100 >
b1100 h
b1100 $"
1=
1<
b100 t
1v
b10001000100010010001000100010 u
0x
1F
#520000
0F
#525000
b100011 &"
b110 k
b0 ;
b0 i
b0 %"
b10001100 >
b10001100 h
b10001100 $"
0=
1<
b101 t
1F
#530000
0F
#535000
b0 &"
b111 k
b0 >
b0 h
b0 $"
0<
b110 t
19
b10000000000000000000000100011 :
b10000000000000000000000100011 a
b10000000000000000000000100011 ("
1F
#540000
0F
#545000
b0 k
b1010101010101010110011001100110 @
b1010101010101010110011001100110 b
1?
1)
1(
1,
1+
1$
1#
b1010101010101010110011001100110 .
b1010101010101010110011001100110 R
b1010101010101010110011001100110 {
1-
b10 &
b10 P
b10 }
1%
b11 '
b11 Q
b11 |
1*
09
b111 t
1F
#550000
0F
#555000
1A
0)
0(
0,
0+
0$
0#
b0 .
b0 R
b0 {
0-
b0 &
b0 P
b0 }
0%
b0 '
b0 Q
b0 |
0*
b0 @
b0 b
0?
b0 t
1F
#560000
0F
#565000
b1010101010101010110011001100110 f
1e
1c
14
b1010101010101010110011001100110 8
b1010101010101010110011001100110 T
b1010101010101010110011001100110 ]
b10 2
b10 V
b10 _
1Y
b1 k
1A
1H
b0 J
b0 \
b0 I
b0 [
b1100 G
b1100 Z
1F
#570000
0F
#575000
b1100 m
b0 z
0e
0c
b1 t
b0 q
0p
b0 s
b0 r
b1100 n
0Y
b11 k
0A
0H
1F
#580000
0F
#585000
b100 k
b110011001100110100010001000100 ~
b1 ""
1#"
b11 t
1F
#590000
0F
#595000
b10011 &"
b101 k
b110011001100110100010001000100 ;
b110011001100110100010001000100 i
b110011001100110100010001000100 %"
b1001100 >
b1001100 h
b1001100 $"
1=
1<
b1001100 y
b100 t
b110011001100110100010001000100 u
b1 w
1x
1F
#600000
0F
#605000
b11 &"
b110 k
b0 ;
b0 i
b0 %"
b1100 >
b1100 h
b1100 $"
0=
1<
b101 t
1F
#610000
0F
#615000
b0 &"
b111 k
b0 >
b0 h
b0 $"
0<
b110 t
19
b10001000100010010001000100010 :
b10001000100010010001000100010 a
b10001000100010010001000100010 ("
1F
#620000
0F
#625000
b0 k
b10001000100010010001000100010 @
b10001000100010010001000100010 b
1?
1(
1+
1$
1#
b10001000100010010001000100010 .
b10001000100010010001000100010 R
b10001000100010010001000100010 {
1-
1%
b11 '
b11 Q
b11 |
1"
1*
09
b111 t
1F
#630000
0F
#635000
1A
0(
0+
0$
0#
b0 .
b0 R
b0 {
0-
0%
b0 '
b0 Q
b0 |
0"
0*
b0 @
b0 b
0?
b0 t
1F
#640000
0F
#645000
b10001000100010010001000100010 j
b10001000100010010001000100010 f
1g
1e
1d
04
05
b10001000100010010001000100010 7
b10001000100010010001000100010 U
b10001000100010010001000100010 ^
b0 1
b0 W
b0 `
1Y
b1 k
1A
1H
b10100 G
b10100 Z
b10100 E
1F
#650000
0F
#655000
b10100 m
b1010100 y
b101 3
b101 S
b101 l
b1 t
b101 o
b10100 n
0Y
1g
b10 k
0A
0H
1F
#660000
0F
#665000
b0 k
1)
1(
b101 '
b101 Q
b101 |
1*
1?
b0 j
b0 f
0g
0e
0d
b10 t
06
0/
00
b0 7
b0 U
b0 ^
b0 8
b0 T
b0 ]
b0 2
b0 V
b0 _
1F
#670000
0F
#675000
1A
0)
0(
b0 '
b0 Q
b0 |
0*
0?
b0 t
1F
#680000
0F
#685000
14
1Y
b1 k
1A
1H
b1111 J
b1111 \
b10101010101110111100110011011101 I
b10101010101110111100110011011101 [
b0 N
1F
#690000
0F
#695000
b10101010101110111100110011011101 j
b11111111111111111111111111111111 z
b1 t
1p
b1111 s
b10101010101110111100110011011101 r
0Y
b11 k
0A
0H
1F
#700000
0F
#705000
b101 k
b0 ~
b0 ""
0!"
0#"
b11 t
1F
#710000
0F
#715000
b101 &"
b110 k
b10100 >
b10100 h
b10100 $"
1<
b10100 y
b101 t
b0 u
b0 w
0v
0x
1F
#720000
0F
#725000
b0 &"
b111 k
b0 >
b0 h
b0 $"
0<
19
b10000000000000000000000000101 :
b10000000000000000000000000101 a
b10000000000000000000000000101 ("
b110 t
1F
#730000
0F
#735000
b0 k
b10101010101110111100110011011101 @
b10101010101110111100110011011101 b
1?
1)
1(
1,
1+
1$
1#
b10101010101110111100110011011101 .
b10101010101110111100110011011101 R
b10101010101110111100110011011101 {
1-
1%
b101 '
b101 Q
b101 |
1*
b111 t
09
1F
#740000
0F
#745000
1A
0)
0(
0,
0+
0$
0#
b0 .
b0 R
b0 {
0-
0%
b0 '
b0 Q
b0 |
0*
b0 @
b0 b
0?
b0 t
1F
#750000
0F
#755000
b10101010101110111100110011011101 f
1e
1c
16
10
b10101010101110111100110011011101 8
b10101010101110111100110011011101 T
b10101010101110111100110011011101 ]
1Y
b1 k
1A
1H
b0 J
b0 \
b0 I
b0 [
1F
#760000
0F
#765000
b0 z
0p
b0 s
b0 r
b1 t
0Y
b10 k
0A
0H
1F
#770000
0F
#775000
b0 k
1)
1(
b101 '
b101 Q
b101 |
1*
b10101010101110111100110011011101 @
b10101010101110111100110011011101 b
1?
b10 t
1F
#780000
0F
#785000
1A
0)
0(
b0 '
b0 Q
b0 |
0*
b0 @
b0 b
0?
b0 t
1F
#790000
0F
#795000
1Y
b1 k
1A
1H
b1 J
b1 \
b11101110 I
b11101110 [
b10101010101110111100110011011101 N
1F
#800000
0F
#805000
b10101010101110111100110011101110 j
b11111111 z
1p
b1 s
b11101110 r
b1 t
0Y
b10 k
0A
0H
1F
#810000
0F
#815000
b0 k
1,
1+
b10101010101110111100110011101110 .
b10101010101110111100110011101110 R
b10101010101110111100110011101110 {
1-
1)
1(
b101 '
b101 Q
b101 |
1*
b10101010101110111100110011101110 @
b10101010101110111100110011101110 b
1?
b10 t
1F
#820000
0F
#825000
1A
0)
0(
0,
0+
b0 .
b0 R
b0 {
0-
b0 '
b0 Q
b0 |
0*
b0 @
b0 b
0?
b0 t
1F
#830000
0F
#835000
b10101010101110111100110011101110 f
b10101010101110111100110011101110 8
b10101010101110111100110011101110 T
b10101010101110111100110011101110 ]
1Y
b1 k
1A
1H
b0 J
b0 \
b0 I
b0 [
1F
#840000
0F
#845000
b0 z
0p
b0 s
b0 r
b1 t
0Y
b10 k
0A
0H
1F
#850000
0F
#855000
b0 k
1)
1(
b101 '
b101 Q
b101 |
1*
b10101010101110111100110011101110 @
b10101010101110111100110011101110 b
1?
b10 t
1F
#860000
0F
#865000
1A
0)
0(
b0 '
b0 Q
b0 |
0*
b0 @
b0 b
0?
b0 t
1F
#870000
0F
#875000
1Y
b1 k
1A
1H
b1100 J
b1100 \
b10001001000100000000000000000 I
b10001001000100000000000000000 [
b10101010101110111100110011101110 N
1F
#880000
0F
#885000
b10001001000101100110011101110 j
b11111111111111110000000000000000 z
1p
b1100 s
b10001001000100000000000000000 r
b1 t
0Y
b10 k
0A
0H
1F
#890000
0F
#895000
b0 k
1,
1+
b10001001000101100110011101110 .
b10001001000101100110011101110 R
b10001001000101100110011101110 {
1-
1)
1(
b101 '
b101 Q
b101 |
1*
b10001001000101100110011101110 @
b10001001000101100110011101110 b
1?
b10 t
1F
#900000
0F
#905000
1A
0)
0(
0,
0+
b0 .
b0 R
b0 {
0-
b0 '
b0 Q
b0 |
0*
b0 @
b0 b
0?
b0 t
1F
#910000
0F
#915000
b10001001000101100110011101110 f
b10001001000101100110011101110 8
b10001001000101100110011101110 T
b10001001000101100110011101110 ]
1Y
b1 k
1A
1H
b0 J
b0 \
b0 I
b0 [
1F
#920000
0F
#925000
b0 z
0p
b0 s
b0 r
b1 t
0Y
b10 k
0A
0H
1F
#930000
0F
#935000
b0 k
1)
1(
b101 '
b101 Q
b101 |
1*
b10001001000101100110011101110 @
b10001001000101100110011101110 b
1?
b10 t
1F
#940000
0F
#945000
1A
0)
0(
b0 '
b0 Q
b0 |
0*
b0 @
b0 b
0?
b0 t
1F
#950000
0F
#955000
b10001001000101100110011101110 N
1F
